{
    "name": "DiemDanhSV",
    "alias": "diemdanhsv",
    "description": "",
    "keywords": [],
    "version": "1.0.0",
	"active": 1,
    "order": 1,
    "providers": [
        "Modules\\DiemDanhSV\\Providers\\DiemDanhSVServiceProvider",
        "Modules\\DiemDanhSV\\Providers\\RouteServiceProvider"
    ],
    "aliases": {},
    "files": [
        
    ],
    "requires": []
}
